Homework 8 Key
…
>        mpg    cyl     disp       hp     drat      wt     qsec     vs      am
> 1 20.09062 6.1875 230.7219 146.6875 3.596563 3.21725 17.84875 0.4375 0.40625
>     gear   carb
> 1 3.6875 2.8125

Answer 3:

Group diamonds by cut, clarity, and color then count the number of observations and compute the mean of each numeric column.

diamonds |> summarise(n = n(),
                      across(where(is.numeric), mean),
                      .by = c(cut, clarity, color))

> # A tibble: 276 × 11
>    cut       clarity color     n carat depth table price     x     y     z
>    <ord>     <ord>   <ord> <dbl> <dbl> <dbl> <dbl> <dbl> <dbl> <dbl> <dbl>
>  1 Ideal     SI2     E       469 0.874  61.7  56.1 3891.  6.02  6.02  3.71
>  2 Premium   SI1     E       614 0.726  61.2  58.8 3363.  5.64  5.61  3.44
>  3 Good      VS1     E        89 0.681  61.6  59.2 3713.  5.49  5.52  3.39
>  4 Premium   VS2     I       315 1.24   61.3  58.9 7156.  6.70  6.67  4.09
>  5 Good      SI2     J        53 1.32   62.4  59.1 5306.  6.85  6.86  4.27
>  6 Very Good VVS2    J        29 1.10   62.4  58.3 5960.  6.34  6.37  3.96
>  7 Very Good VVS1    I        69 0.571  62.2  58.0 2056.  5.17  5.20  3.22
>  8 Very Good SI1     H       547 0.974  62.0  58.0 4934.  6.15  6.17  3.82
>  9 Fair      VS2     E        42 0.690  64.5  59.4 3042.  5.50  5.45  3.53
> 10 Very Good VS1     H       257 0.772  62.0  57.7 3750.  5.68  5.70  3.53
> # ℹ 266 more rows
…
