csss508_lecture2
…
no_outliers <- gapminder |> 
  group_by(continent) |> 
  mutate(outlier = case_when(
    quantile(lifeExp, probs = 0.25) - (IQR(lifeExp) * 1.5) > lifeExp ~ "outlier",
    quantile(lifeExp, probs = 0.75) + (IQR(lifeExp) * 1.5) < lifeExp ~ "outlier",
    .default = NA)) |> 
6  filter(is.na(outlier))

no_outliers

6

Remove outliers from original data

# A tibble: 1,679 × 7
# Groups:   continent [5]
   country     continent  year lifeExp      pop gdpPercap outlier
   <fct>       <fct>     <int>   <dbl>    <int>     <dbl> <chr>  
 1 Afghanistan Asia       1952    28.8  8425333      779. <NA>   
 2 Afghanistan Asia       1957    30.3  9240934      821. <NA>   
 3 Afghanistan Asia       1962    32.0 10267083      853. <NA>   
 4 Afghanistan Asia       1967    34.0 11537966      836. <NA>   
 5 Afghanistan Asia       1972    36.1 13079460      740. <NA>   
 6 Afghanistan Asia       1977    38.4 14880372      786. <NA>   
 7 Afghanistan Asia       1982    39.9 12881816      978. <NA>   
 8 Afghanistan Asia       1987    40.8 13867957      852. <NA>   
 9 Afghanistan Asia       1992    41.7 16317921      649. <NA>   
10 Afghanistan Asia       1997    41.8 22227415      635. <NA>   
# ℹ 1,669 more rows
…
