Homework 7 Key
…
Answer 2:

Read the documentation for separate_longer_delim(). Use this function to figure out what 10 “words”1 are most frequently used for the restaurant names in this data set.

restaurants |> 
  distinct(Name) |> 
  separate_longer_delim(Name, delim = " ") |> 
  count(Name) |> 
  arrange(desc(n))

> # A tibble: 9,370 × 2
>    Name           n
>    <chr>      <int>
>  1 &            692
>  2 LLC          619
>  3 CAFE         409
>  4 RESTAURANT   380
>  5 SCHOOL       360
>  6 THE          353
>  7 COFFEE       315
>  8 @            306
>  9 -            303
> 10 BAR          260
> # ℹ 9,360 more rows
…
1

This separates the area code from the 7 digit phone number.

2

This separates the 7 digit phone number into the first three digits and the last (at least) four digits.

3

These calls remove the first (open) parentheses around the area code and then the second (close) parentheses.

> # A tibble: 7,384 × 3
>    area_code first_3 last_4
>    <chr>     <chr>   <chr> 
>  1 206       722     6400  
>  2 206       491     4694  
>  3 952       649     8629  
>  4 206       369     2978  
>  5 206       612     2660  
>  6 758       753     4760  
>  7 425       251     8803  
>  8 425       486     5555  
>  9 206       363     8950  
> 10 425       545     5552  
> # ℹ 7,374 more rows
2. separate_wider_delim() (w/ regex)

restaurants |> 
  distinct(Phone) |> 
  separate_wider_delim(cols = Phone, 
4                       delim = regex("[ |-]"),
                       names = c("area_code", "first_3", "last_4")) |>
  mutate(area_code = str_remove(area_code, pattern = "\\("), 
         area_code = str_remove(area_code, pattern = "\\)"))

4

This regex is separating the whole phone number by a space or a dash (what the first approach did in two steps it does in one).

> # A tibble: 7,384 × 3
>    area_code first_3 last_4
>    <chr>     <chr>   <chr> 
>  1 206       722     6400  
>  2 206       491     4694  
>  3 952       649     8629  
>  4 206       369     2978  
>  5 206       612     2660  
>  6 758       753     4760  
>  7 425       251     8803  
>  8 425       486     5555  
>  9 206       363     8950  
> 10 425       545     5552  
> # ℹ 7,374 more rows
…
5

This regex extracts the first three digits.

6

This regex extracts three digits that are preceded by a space and followed by a dash.

7

This regex extracts at least four numbers/letters/punctuation characters following a dash.

> # A tibble: 7,384 × 4
>    Phone          area_code first_3 last_4
>    <chr>          <chr>     <chr>   <chr> 
>  1 (206) 722-6400 206       722     6400  
>  2 (206) 491-4694 206       491     4694  
>  3 (952) 649-8629 952       649     8629  
>  4 (206) 369-2978 206       369     2978  
>  5 (206) 612-2660 206       612     2660  
>  6 (758) 753-4760 758       753     4760  
>  7 (425) 251-8803 425       251     8803  
>  8 (425) 486-5555 425       486     5555  
>  9 (206) 363-8950 206       363     8950  
> 10 (425) 545-5552 425       545     5552  
> # ℹ 7,374 more rows
…
Matches and discards the second parentheses and a space.

11

Captures three digits in a row.

12

Matches and discards a dash.

13

Captures at least 4 characters at the end of the phone number. This regex actually includes the entire phone number, even the ones with typos and additional numbers/letters in the last part.

> # A tibble: 7,384 × 3
>    area_code first_3 last_4
>    <chr>     <chr>   <chr> 
>  1 206       722     6400  
>  2 206       491     4694  
>  3 952       649     8629  
>  4 206       369     2978  
>  5 206       612     2660  
>  6 758       753     4760  
>  7 425       251     8803  
>  8 425       486     5555  
>  9 206       363     8950  
> 10 425       545     5552  
> # ℹ 7,374 more rows
…
