Homework 5
…
---
title: "My Document"
execute:
  echo: true
---

Exercises

Download the billboard data set introduced in lecture (above) to the same folder where you’re saving your qmd for this homework2.

Read in the data, clean up the names, and pivot it in a way so the first few rows look like this:

2 If your project directory is different from the directory where you’ll be saving these two files, you should use the here() package to be able to run code interactively and knit your .qmd without conflict

> # A tibble: 5,307 × 6
>    artist  track                   time   date_entered  week  rank
>    <chr>   <chr>                   <time> <date>       <int> <dbl>
>  1 2 Pac   Baby Don't Cry (Keep... 04:22  2000-02-26       1    87
>  2 2 Pac   Baby Don't Cry (Keep... 04:22  2000-02-26       2    82
>  3 2 Pac   Baby Don't Cry (Keep... 04:22  2000-02-26       3    72
>  4 2 Pac   Baby Don't Cry (Keep... 04:22  2000-02-26       4    77
>  5 2 Pac   Baby Don't Cry (Keep... 04:22  2000-02-26       5    87
>  6 2 Pac   Baby Don't Cry (Keep... 04:22  2000-02-26       6    94
>  7 2 Pac   Baby Don't Cry (Keep... 04:22  2000-02-26       7    99
>  8 2Ge+her The Hardest Part Of ... 03:15  2000-09-02       1    91
>  9 2Ge+her The Hardest Part Of ... 03:15  2000-09-02       2    87
> 10 2Ge+her The Hardest Part Of ... 03:15  2000-09-02       3    92
> # ℹ 5,297 more rows

Create a variable named date that corresponds to the week based on the date_entered3. Read the footnote for a hint but if you need help visualizing what the final dataset might look like, you can reveal another hint below.

3 For instance, if the date_entered is 1-13-2000 and week is 1, then when week is 2 date will have a value of 1-20-2000. Hint: Try using if_else() here.

 Click for a preview of what the final dataset should look like

billboard_tidy_date

> # A tibble: 5,307 × 7
>    artist  track                   time   date_entered  week  rank date      
>    <chr>   <chr>                   <time> <date>       <int> <dbl> <date>    
>  1 2 Pac   Baby Don't Cry (Keep... 04:22  2000-02-26       1    87 2000-02-26
>  2 2 Pac   Baby Don't Cry (Keep... 04:22  2000-02-26       2    82 2000-03-04
>  3 2 Pac   Baby Don't Cry (Keep... 04:22  2000-02-26       3    72 2000-03-11
>  4 2 Pac   Baby Don't Cry (Keep... 04:22  2000-02-26       4    77 2000-03-18
>  5 2 Pac   Baby Don't Cry (Keep... 04:22  2000-02-26       5    87 2000-03-25
>  6 2 Pac   Baby Don't Cry (Keep... 04:22  2000-02-26       6    94 2000-04-01
>  7 2 Pac   Baby Don't Cry (Keep... 04:22  2000-02-26       7    99 2000-04-08
>  8 2Ge+her The Hardest Part Of ... 03:15  2000-09-02       1    91 2000-09-02
>  9 2Ge+her The Hardest Part Of ... 03:15  2000-09-02       2    87 2000-09-09
> 10 2Ge+her The Hardest Part Of ... 03:15  2000-09-02       3    92 2000-09-16
> # ℹ 5,297 more rows
…
