Homework 5 Key
…
Code

billboard <- read_csv("billboard_top100.csv") 
billboard_tidy <- billboard |> 
  pivot_longer(starts_with("wk"), 
               names_to = "week", 
               values_to = "rank", 
               values_drop_na = TRUE, 
               names_prefix = "wk", 
               names_transform = list(week = as.integer)) |> 
  janitor::clean_names() 
billboard_tidy

> # A tibble: 5,307 × 6
>    artist  track                   time   date_entered  week  rank
>    <chr>   <chr>                   <time> <date>       <int> <dbl>
>  1 2 Pac   Baby Don't Cry (Keep... 04:22  2000-02-26       1    87
>  2 2 Pac   Baby Don't Cry (Keep... 04:22  2000-02-26       2    82
>  3 2 Pac   Baby Don't Cry (Keep... 04:22  2000-02-26       3    72
>  4 2 Pac   Baby Don't Cry (Keep... 04:22  2000-02-26       4    77
>  5 2 Pac   Baby Don't Cry (Keep... 04:22  2000-02-26       5    87
>  6 2 Pac   Baby Don't Cry (Keep... 04:22  2000-02-26       6    94
>  7 2 Pac   Baby Don't Cry (Keep... 04:22  2000-02-26       7    99
>  8 2Ge+her The Hardest Part Of ... 03:15  2000-09-02       1    91
>  9 2Ge+her The Hardest Part Of ... 03:15  2000-09-02       2    87
> 10 2Ge+her The Hardest Part Of ... 03:15  2000-09-02       3    92
> # ℹ 5,297 more rows
…
Create a variable named date that corresponds to the week based on the date_entered.

Code

billboard_tidy_date <- billboard_tidy |> 
1  mutate(date = if_else(week == 1,
                       date_entered,
                       date_entered + weeks(x = week - 1)))
billboard_tidy_date

1

This if_else basically says, “if week is equal to 1 then assign the date_entered value to date. Otherwise, add the number of weeks minus 1 to the date_entered value (i.e. for the second week you would want to add 2 - 1 or 1 week to the date_entered value).

> # A tibble: 5,307 × 7
>    artist  track                   time   date_entered  week  rank date      
>    <chr>   <chr>                   <time> <date>       <int> <dbl> <date>    
>  1 2 Pac   Baby Don't Cry (Keep... 04:22  2000-02-26       1    87 2000-02-26
>  2 2 Pac   Baby Don't Cry (Keep... 04:22  2000-02-26       2    82 2000-03-04
>  3 2 Pac   Baby Don't Cry (Keep... 04:22  2000-02-26       3    72 2000-03-11
>  4 2 Pac   Baby Don't Cry (Keep... 04:22  2000-02-26       4    77 2000-03-18
>  5 2 Pac   Baby Don't Cry (Keep... 04:22  2000-02-26       5    87 2000-03-25
>  6 2 Pac   Baby Don't Cry (Keep... 04:22  2000-02-26       6    94 2000-04-01
>  7 2 Pac   Baby Don't Cry (Keep... 04:22  2000-02-26       7    99 2000-04-08
>  8 2Ge+her The Hardest Part Of ... 03:15  2000-09-02       1    91 2000-09-02
>  9 2Ge+her The Hardest Part Of ... 03:15  2000-09-02       2    87 2000-09-09
> 10 2Ge+her The Hardest Part Of ... 03:15  2000-09-02       3    92 2000-09-16
> # ℹ 5,297 more rows
…
