csss508_lecture7
…
restaurants |> 
  select(Name, Address, City) |> 
  distinct() |> 
1  mutate(Sentence = str_c(Name, " is located at ", Address, " in ", City, "."),
2         .keep = "none")

1

Notice there are spaces at the beginning and end of the fixed character strings. This is because if we used the sep argument here it would add a space before the period at the end of the sentence. So instead, we can add them directly where we want them.

2

Using .keep = "none" here in order to see just the results of our mutate.

> # A tibble: 10,969 × 1
>    Sentence                                                                    
>    <chr>                                                                       
>  1 #807 TUTTA BELLA is located at 2746 NE 45TH ST in SEATTLE.                  
>  2 +MAS CAFE  is located at 1906 N 34TH ST in SEATTLE.                         
>  3 ?al?al Cafe is located at 122 2ND AVE S in SEATTLE.                         
>  4 100 LB CLAM is located at 1001 FAIRVIEW AVE N Unit 1700A in SEATTLE.        
>  5 1000 SPIRITS is located at 1225 1ST AVE in SEATTLE.                         
>  6 100TH AVE CAKES is located at 15364 NE 96TH PL in REDMOND.                  
>  7 108 VIETNAMESE AUTHENTIC  CUISINE is located at 18114 E VALLEY HWY in KENT. 
>  8 11TH FRAME RESTAURANT & LOUNGE is located at 7638 NE BOTHELL WAY in KENMORE.
>  9 125TH ST GRILL is located at 12255 AURORA AVE N in Seattle.                 
> 10 12S TACOS MEXICAN FOOD KC1012 is located at 625 S 4TH ST in RENTON.         
> # ℹ 10,959 more rows

Example #2 with Restaurant Data

As we saw in the previous example, when you’re mixing many fixed and variable strings with str_c() things can get overwhelmed by quotation marks pretty easily. An alternative with simpler syntax is str_glue() in which anything inside {} will be evaluated like it’s outside the quotes.

. . .

restaurants |> 
  select(Name, Address, City) |> 
  distinct() |> 
  mutate(Sentence = str_glue("{Name} is located at {Address} in {City}."), 
         .keep = "none")

> # A tibble: 10,969 × 1
>    Sentence                                                                    
>    <glue>                                                                      
>  1 #807 TUTTA BELLA is located at 2746 NE 45TH ST in SEATTLE.                  
>  2 +MAS CAFE  is located at 1906 N 34TH ST in SEATTLE.                         
>  3 ?al?al Cafe is located at 122 2ND AVE S in SEATTLE.                         
>  4 100 LB CLAM is located at 1001 FAIRVIEW AVE N Unit 1700A in SEATTLE.        
>  5 1000 SPIRITS is located at 1225 1ST AVE in SEATTLE.                         
>  6 100TH AVE CAKES is located at 15364 NE 96TH PL in REDMOND.                  
>  7 108 VIETNAMESE AUTHENTIC  CUISINE is located at 18114 E VALLEY HWY in KENT. 
>  8 11TH FRAME RESTAURANT & LOUNGE is located at 7638 NE BOTHELL WAY in KENMORE.
>  9 125TH ST GRILL is located at 12255 AURORA AVE N in Seattle.                 
> 10 12S TACOS MEXICAN FOOD KC1012 is located at 625 S 4TH ST in RENTON.         
> # ℹ 10,959 more rows
…
If you want to create a summary of certain character strings you can use str_flatten() which takes a character vector and combines each element of the vector into a single string.

. . .

restaurants |> 
1  select(Name, `Inspection Score`) |>
  summarize(inspection_scores = str_flatten(`Inspection Score`, collapse = ", "), 
            .by = Name)

1

Notice that when a variable has spaces in it’s name (rather than being separated with an underscore in snake_case, for instance) you need to put backticks around it so R knows it is a singular object name.

> # A tibble: 9,878 × 2
>    Name                                inspection_scores                        
>    <chr>                               <chr>                                    
>  1 "#807 TUTTA BELLA"                  20, 20, 10, 10, 0, 0                     
>  2 "+MAS CAFE "                        0, 30, 30, 0, 47, 47, 47, 47, 47, 0, 0   
>  3 "?al?al Cafe"                       0, 0                                     
>  4 "100 LB CLAM"                       0, 0, 0, 25, 25, 25, 25, 0, 0            
>  5 "1000 SPIRITS"                      0, 5, 0, 5, 0, 5, 0, 5, 0, 32, 32, 32, 2…
>  6 "100TH AVE CAKES"                   0, 0, 0, 0                               
>  7 "108 VIETNAMESE AUTHENTIC  CUISINE" 35, 35, 35, 30, 30, 15, 15               
>  8 "11TH FRAME RESTAURANT & LOUNGE"    20, 20, 0, 10, 10, 5, 0, 30, 30, 18, 18,…
>  9 "125TH ST GRILL"                    0, 20, 20, 20, 0, 20, 20, 20, 18, 18, 18…
> 10 "12S TACOS MEXICAN FOOD KC1012"     <NA>                                     
> # ℹ 9,868 more rows

Example #4 with Restaurant Data

What if we want to plot one of the variables in our dataset but many of its values are too long and it’d be too arduous to manually add \n to every long value? There’s str_wrap()!

. . .

restaurants |> 
  mutate(Name = str_wrap(Name, width = 20)) |> 
  distinct(Name)

> # A tibble: 9,873 × 1
>    Name                               
>    <chr>                              
>  1 "#807 TUTTA BELLA"                 
>  2 "+MAS CAFE"                        
>  3 "?al?al Cafe"                      
>  4 "100 LB CLAM"                      
>  5 "1000 SPIRITS"                     
>  6 "100TH AVE CAKES"                  
>  7 "108 VIETNAMESE\nAUTHENTIC CUISINE"
>  8 "11TH FRAME\nRESTAURANT & LOUNGE"  
>  9 "125TH ST GRILL"                   
> 10 "12S TACOS MEXICAN\nFOOD KC1012"   
> # ℹ 9,863 more rows
…
restaurants |> 
1  select(`Inspection Date`) |>
  separate_wider_delim(`Inspection Date`, 
2                       delim = "/",
                       names = c("month", "day", "year"))

1

This variable was read in as a character string rather than a date object.

2

The specific symbol that separates each element, i.e. what we want to split on.

> # A tibble: 256,681 × 3
>    month day   year 
>    <chr> <chr> <chr>
>  1 03    02    2023 
>  2 03    02    2023 
>  3 08    31    2022 
>  4 08    31    2022 
>  5 01    13    2022 
>  6 01    06    2021 
>  7 06    22    2023 
>  8 03    01    2023 
>  9 03    01    2023 
> 10 07    13    2022 
> # ℹ 256,671 more rows
…
1

too_many = "drop" will drop any additional pieces and too_many = "merge" will merge them all into the final column.

2

Example of the too_many error (Address_pieces ranged from 4 to 9 in this dataset).

> # A tibble: 172,718 × 7
>    num   name  type  Address         Address_ok Address_pieces Address_remainder
>    <chr> <chr> <chr> <chr>           <lgl>               <int> <chr>            
>  1 2746  NE    45TH  2746 NE 45TH ST FALSE                   4 " ST"            
>  2 2746  NE    45TH  2746 NE 45TH ST FALSE                   4 " ST"            
>  3 2746  NE    45TH  2746 NE 45TH ST FALSE                   4 " ST"            
>  4 2746  NE    45TH  2746 NE 45TH ST FALSE                   4 " ST"            
>  5 2746  NE    45TH  2746 NE 45TH ST FALSE                   4 " ST"            
>  6 2746  NE    45TH  2746 NE 45TH ST FALSE                   4 " ST"            
>  7 1906  N     34TH  1906 N 34TH ST  FALSE                   4 " ST"            
>  8 1906  N     34TH  1906 N 34TH ST  FALSE                   4 " ST"            
>  9 1906  N     34TH  1906 N 34TH ST  FALSE                   4 " ST"            
> 10 1906  N     34TH  1906 N 34TH ST  FALSE                   4 " ST"            
> # ℹ 172,708 more rows
…
1

too_few = "align_start" and too_few = "align_end" will add NAs to the missing pieces depending on where they should go.

2

Example of the too_few error.

> # A tibble: 792 × 7
>    num   name     type  Address      Address_ok Address_pieces Address_remainder
>    <chr> <chr>    <chr> <chr>        <lgl>               <int> <chr>            
>  1 1401  BROADWAY <NA>  1401 BROADW… FALSE                   2 ""               
>  2 1401  BROADWAY <NA>  1401 BROADW… FALSE                   2 ""               
>  3 1401  BROADWAY <NA>  1401 BROADW… FALSE                   2 ""               
>  4 1401  BROADWAY <NA>  1401 BROADW… FALSE                   2 ""               
>  5 1401  BROADWAY <NA>  1401 BROADW… FALSE                   2 ""               
>  6 1401  BROADWAY <NA>  1401 BROADW… FALSE                   2 ""               
>  7 1401  BROADWAY <NA>  1401 BROADW… FALSE                   2 ""               
>  8 1401  BROADWAY <NA>  1401 BROADW… FALSE                   2 ""               
>  9 1401  BROADWAY <NA>  1401 BROADW… FALSE                   2 ""               
> 10 1401  BROADWAY <NA>  1401 BROADW… FALSE                   2 ""               
> # ℹ 782 more rows
…
If we want to subset a string we can use str_sub(). Let’s pull out just the area codes from the Phone variable.

. . .

restaurants |> 
  select(`Phone`) |> 
1  mutate(area_code = str_sub(`Phone`, start = 2, end = 4)) |>
  distinct(area_code)

1

start and end are the positions where the “substring” should start and end (inclusive). You can also use negative values to count backwards from the end of a string. Note that str_sub() won’t fail if the string is too short: it will just return as much as possible.

> # A tibble: 209 × 1
>    area_code
>    <chr>    
>  1 206      
>  2 952      
>  3 758      
>  4 425      
>  5 702      
>  6 509      
>  7 512      
>  8 <NA>     
>  9 760      
> 10 801      
> # ℹ 199 more rows
…
Pattern-Matching!

It’s common to want to see if a string satisfies a certain pattern.

. . .

We did this with numeric values earlier in this course!

restaurants |>  
  select(Name, `Inspection Score`) |> 
  filter(`Inspection Score` < 10 | `Inspection Score` > 150)

> # A tibble: 139,744 × 2
>    Name               `Inspection Score`
>    <chr>                           <dbl>
>  1 "#807 TUTTA BELLA"                  0
>  2 "#807 TUTTA BELLA"                  0
>  3 "+MAS CAFE "                        0
>  4 "+MAS CAFE "                        0
>  5 "+MAS CAFE "                        0
>  6 "+MAS CAFE "                        0
>  7 "?al?al Cafe"                       0
>  8 "?al?al Cafe"                       0
>  9 "100 LB CLAM"                       0
> 10 "100 LB CLAM"                       0
> # ℹ 139,734 more rows
…
1

string is the character string (or vector of strings) we want to examine and pattern is the pattern that we’re checking for, inside string. The output will be a TRUE/FALSE vector indicating if pattern was found.

restaurants |> 
  select(Name, Address) |> 
2  mutate(Address = str_to_title(Address)) |>
  filter(str_detect(Address, "Pike")) |> 
  distinct()

2

Note: Results are case-sensitive!! Therefore we need to transform all the addresses to the same case.

> # A tibble: 139 × 2
>    Name                                       Address           
>    <chr>                                      <chr>             
>  1 ALDER & ASH                                629 Pike St       
>  2 ALIBI ROOM, THE                            85 Pike St        
>  3 AMAZON RETAIL LLC                          610 E Pike St     
>  4 ATHENIAN INN                               1517 Pike Pl      
>  5 ATRIUM KITCHEN AT PIKE PLACE MARKET        93 Pike St Ste 101
>  6 AUDACITY WINEBAR ALEXANDRIA NICOLE CELLARS 800 Pike St       
>  7 Axum Foods DBA Lands Of Origin             1532 Pike Pl      
>  8 AYUTTHAYA THAI RESTAURANT                  727 E Pike St     
>  9 BAGELBOP                                   93 Pike St        
> 10 BAI TONG THAI STREET CAFE                  1121 E Pike St    
> # ℹ 129 more rows
…
replacement is what pattern is substituted for.

. . .

restaurants |> 
  select(`Inspection Date`) |> 
  mutate(full_date = str_replace(string = `Inspection Date`, 
2                                 pattern = "01/",
                                 replacement = "January "))

2

In this case, our pattern is limited since "01/" occurs both for the month and the day. This would be a good place for a regular expression.

> # A tibble: 256,681 × 2
>    `Inspection Date` full_date      
>    <chr>             <chr>          
>  1 03/02/2023        03/02/2023     
>  2 03/02/2023        03/02/2023     
>  3 08/31/2022        08/31/2022     
>  4 08/31/2022        08/31/2022     
>  5 01/13/2022        January 13/2022
>  6 01/06/2021        January 06/2021
>  7 06/22/2023        06/22/2023     
>  8 03/01/2023        03/January 2023
>  9 03/01/2023        03/January 2023
> 10 07/13/2022        07/13/2022     
> # ℹ 256,671 more rows
…
Let’s go back to our example and see if we can use a regular expression to replace 01/ just for the month position of our date variable.

. . .

restaurants |> 
  select(`Inspection Date`) |> 
  mutate(full_date = str_replace(string = `Inspection Date`, 
1                                 pattern = "^01/",
                                 replacement = "January "))

1

We can pretty simply use a regex signifier (the starting anchor ^) to make sure our replacement only happens to the 01/s in the month position.

> # A tibble: 256,681 × 2
>    `Inspection Date` full_date      
>    <chr>             <chr>          
>  1 03/02/2023        03/02/2023     
>  2 03/02/2023        03/02/2023     
>  3 08/31/2022        08/31/2022     
>  4 08/31/2022        08/31/2022     
>  5 01/13/2022        January 13/2022
>  6 01/06/2021        January 06/2021
>  7 06/22/2023        06/22/2023     
>  8 03/01/2023        03/01/2023     
>  9 03/01/2023        03/01/2023     
> 10 07/13/2022        07/13/2022     
> # ℹ 256,671 more rows
…
Separation with regex

res_sep <- restaurants |> 
  distinct(Name, Description) |> 
  separate_wider_regex(cols = Description, 
                       patterns = c(capacity_description = "^.+",
                                    risk_category = "Risk ?(?:Category)? ?I{1,3}$"), 
1                       too_few = "align_start")
res_sep

1

Since the only non-match was the one without a valid value for risk_category, we can give too_few the value align_start which tells the function to fill in anything without a value for the second variable with an NA.

> # A tibble: 11,209 × 3
>    Name                                capacity_description   risk_category    
>    <chr>                               <chr>                  <chr>            
>  1 "#807 TUTTA BELLA"                  "Seating 0-12 - "      Risk Category III
>  2 "+MAS CAFE "                        "Seating 0-12 - "      Risk Category III
>  3 "?al?al Cafe"                       "Seating 13-50 - "     Risk Category III
>  4 "100 LB CLAM"                       "Seating 0-12 - "      Risk Category III
>  5 "1000 SPIRITS"                      "Seating 51-150 - "    Risk Category III
>  6 "100TH AVE CAKES"                   "Bakery-no seating - " Risk Category II 
>  7 "108 VIETNAMESE AUTHENTIC  CUISINE" "Seating 51-150 - "    Risk Category III
>  8 "11TH FRAME RESTAURANT & LOUNGE"    "Seating 51-150 - "    Risk Category III
>  9 "125TH ST GRILL"                    "Seating 51-150 - "    Risk Category III
> 10 "12S TACOS MEXICAN FOOD KC1012"     "Mobile Food Unit - "  Risk Category III
> # ℹ 11,199 more rows
…
1

We can remove the trailing - by using str_remove and providing the regular expression for that piece of the capacity_description string.

2

Since this variable is already named risk_category, we can remove that language from the beginning of each string, by matching the first part of our original regular expression for this variable.

> # A tibble: 11,209 × 3
>    Name                                capacity_description risk_category
>    <chr>                               <chr>                <chr>        
>  1 "#807 TUTTA BELLA"                  Seating 0-12         III          
>  2 "+MAS CAFE "                        Seating 0-12         III          
>  3 "?al?al Cafe"                       Seating 13-50        III          
>  4 "100 LB CLAM"                       Seating 0-12         III          
>  5 "1000 SPIRITS"                      Seating 51-150       III          
>  6 "100TH AVE CAKES"                   Bakery-no seating    II           
>  7 "108 VIETNAMESE AUTHENTIC  CUISINE" Seating 51-150       III          
>  8 "11TH FRAME RESTAURANT & LOUNGE"    Seating 51-150       III          
>  9 "125TH ST GRILL"                    Seating 51-150       III          
> 10 "12S TACOS MEXICAN FOOD KC1012"     Mobile Food Unit     III          
> # ℹ 11,199 more rows
…
US baby names provided by the Social Security Administration. This package contains all names used for at least 5 children of either sex for 1880-2017.

What is the shortest name length? What is the longest name length? Mean? Median?

What is the most popular letter for a name to start with?7

Pick a year between 1880 and 2017 and use either str_c() or str_glue() to create a new variable that is a sentence stating what the most popular name was for each binary sex category in that year. Add a line break in your sentence and use str_view() to see what the new string looks like8.

Optional bonus: Make a plot of the popularity of your own name/nickname over time. What year was your name most popular? Is that close to your birth year?

Answers

babynames

> # A tibble: 1,924,665 × 5
>     year sex   name          n   prop
>    <dbl> <chr> <chr>     <int>  <dbl>
>  1  1880 F     Mary       7065 0.0724
>  2  1880 F     Anna       2604 0.0267
>  3  1880 F     Emma       2003 0.0205
>  4  1880 F     Elizabeth  1939 0.0199
>  5  1880 F     Minnie     1746 0.0179
>  6  1880 F     Margaret   1578 0.0162
>  7  1880 F     Ida        1472 0.0151
>  8  1880 F     Alice      1414 0.0145
>  9  1880 F     Bertha     1320 0.0135
> 10  1880 F     Sarah      1288 0.0132
> # ℹ 1,924,655 more rows
…
Answers

What is the most popular letter for a name to start with?9

. . .

babynames |> 
  mutate(first = str_sub(name, 1, 1)) |> 
  count(first, wt = prop,) |> 
  arrange(desc(n))

> # A tibble: 26 × 2
>    first     n
>    <chr> <dbl>
>  1 J      32.6
>  2 M      25.9
>  3 A      20.9
>  4 C      18.7
>  5 R      17.8
>  6 E      16.0
>  7 D      15.5
>  8 L      15.3
>  9 S      13.8
> 10 B      11.8
> # ℹ 16 more rows
…
