csss508_lecture6
…
n_distinct()

Use this function if you want the count the number of distinct (unique) values of one or more variables.

. . .

Say we’re interested in which destinations are served by the most carriers:

flights |> 
  summarize(carriers = n_distinct(carrier), 
            .by = dest) |> 
  arrange(desc(carriers))

> # A tibble: 105 × 2
>    dest  carriers
>    <chr>    <int>
>  1 ATL          7
>  2 ORD          7
>  3 TPA          7
>  4 BOS          7
>  5 CLT          7
>  6 IAD          6
>  7 MSP          6
>  8 DTW          6
>  9 MSY          6
> 10 PIT          6
> # ℹ 95 more rows

Weighted Counts

A weighted count is simply a grouped sum, therefore count has a wt argument to allow for the shorthand.

. . .

Let’s find out the number of miles each plane flew.

flights |> 
  summarize(miles = sum(distance), 
            .by = tailnum)

> # A tibble: 4,044 × 2
>    tailnum  miles
>    <chr>    <dbl>
>  1 N14228  171713
>  2 N24211  172934
>  3 N619AA   32141
>  4 N804JB  311992
>  5 N668DN   50352
>  6 N39463  169905
>  7 N516JB  359585
>  8 N829AS   52549
>  9 N593JB  377619
> 10 N3ALAA   67925
> # ℹ 4,034 more rows

This is equivalent to:

flights |> count(tailnum, wt = distance) 

> # A tibble: 4,044 × 2
>    tailnum      n
>    <chr>    <dbl>
>  1 D942DN    3418
>  2 N0EGMQ  250866
>  3 N10156  115966
>  4 N102UW   25722
>  5 N103US   24619
>  6 N104UW   25157
>  7 N10575  150194
>  8 N105UW   23618
>  9 N107US   21677
> 10 N108UW   32070
> # ℹ 4,034 more rows
…
Computes the remainder.

>  [1] 0 0 1 1 1 2 2 2 3 3
>  [1] 1 2 0 1 2 0 1 2 0 1

. . .

We can see how this can be useful in our flights data which has curiously stored time:

flights |> mutate(hour = sched_dep_time %/% 100,
                  minute = sched_dep_time %% 100,
                  .keep = "used")

> # A tibble: 336,776 × 3
>    sched_dep_time  hour minute
>             <int> <dbl>  <dbl>
>  1            515     5     15
>  2            529     5     29
>  3            540     5     40
>  4            545     5     45
>  5            600     6      0
>  6            558     5     58
>  7            600     6      0
>  8            600     6      0
>  9            600     6      0
> 10            600     6      0
> # ℹ 336,766 more rows
…
