csss508_lecture9
…
Step 2: Using map() instead!

Instead of listing out all the read_excel() calls in our list, we can used the map() function from the tidyverse’s purrr package. map() is similar to across(), but instead of doing something to each column in a data frame, it does something to each element of a vector.

. . .

files <- map(paths, readxl::read_excel)

. . .

Now, what does files contain?

files[[1]]

> # A tibble: 142 × 5
>    country     continent lifeExp      pop gdpPercap
>    <chr>       <chr>       <dbl>    <dbl>     <dbl>
>  1 Afghanistan Asia         28.8  8425333      779.
>  2 Albania     Europe       55.2  1282697     1601.
>  3 Algeria     Africa       43.1  9279525     2449.
>  4 Angola      Africa       30.0  4232095     3521.
>  5 Argentina   Americas     62.5 17876956     5911.
>  6 Australia   Oceania      69.1  8691212    10040.
>  7 Austria     Europe       66.8  6927772     6137.
>  8 Bahrain     Asia         50.9   120447     9867.
>  9 Bangladesh  Asia         37.5 46886859      684.
> 10 Belgium     Europe       68    8730405     8343.
> # ℹ 132 more rows

Step 3: Combine Dataframes into One

Now that we have all our individual dataframes in an element of a list, we can use list_rbind to combine them into one dataframe.

. . .

list_rbind(files)

> # A tibble: 1,704 × 5
>    country     continent lifeExp      pop gdpPercap
>    <chr>       <chr>       <dbl>    <dbl>     <dbl>
>  1 Afghanistan Asia         28.8  8425333      779.
>  2 Albania     Europe       55.2  1282697     1601.
>  3 Algeria     Africa       43.1  9279525     2449.
>  4 Angola      Africa       30.0  4232095     3521.
>  5 Argentina   Americas     62.5 17876956     5911.
>  6 Australia   Oceania      69.1  8691212    10040.
>  7 Austria     Europe       66.8  6927772     6137.
>  8 Bahrain     Asia         50.9   120447     9867.
>  9 Bangladesh  Asia         37.5 46886859      684.
> 10 Belgium     Europe       68    8730405     8343.
> # ℹ 1,694 more rows
…
4

The set_names function takes the function basename which extracts just the file name from the full path. This line of code will therefore create a named vector of the file paths where the names are actually the filenames.

What is this doing?

paths |> 
  set_names(basename) |> 
  map(readxl::read_excel)

> $`1952.xlsx`
> # A tibble: 142 × 5
>    country     continent lifeExp      pop gdpPercap
>    <chr>       <chr>       <dbl>    <dbl>     <dbl>
>  1 Afghanistan Asia         28.8  8425333      779.
>  2 Albania     Europe       55.2  1282697     1601.
>  3 Algeria     Africa       43.1  9279525     2449.
>  4 Angola      Africa       30.0  4232095     3521.
>  5 Argentina   Americas     62.5 17876956     5911.
>  6 Australia   Oceania      69.1  8691212    10040.
>  7 Austria     Europe       66.8  6927772     6137.
>  8 Bahrain     Asia         50.9   120447     9867.
>  9 Bangladesh  Asia         37.5 46886859      684.
> 10 Belgium     Europe       68    8730405     8343.
> # ℹ 132 more rows
> 
> $`1957.xlsx`
> # A tibble: 142 × 5
>    country     continent lifeExp      pop gdpPercap
>    <chr>       <chr>       <dbl>    <dbl>     <dbl>
>  1 Afghanistan Asia         30.3  9240934      821.
>  2 Albania     Europe       59.3  1476505     1942.
>  3 Algeria     Africa       45.7 10270856     3014.
>  4 Angola      Africa       32.0  4561361     3828.
>  5 Argentina   Americas     64.4 19610538     6857.
>  6 Australia   Oceania      70.3  9712569    10950.
>  7 Austria     Europe       67.5  6965860     8843.
>  8 Bahrain     Asia         53.8   138655    11636.
>  9 Bangladesh  Asia         39.3 51365468      662.
> 10 Belgium     Europe       69.2  8989111     9715.
> # ℹ 132 more rows
> 
> $`1962.xlsx`
> # A tibble: 142 × 5
>    country     continent lifeExp      pop gdpPercap
>    <chr>       <chr>       <dbl>    <dbl>     <dbl>
>  1 Afghanistan Asia         32.0 10267083      853.
>  2 Albania     Europe       64.8  1728137     2313.
>  3 Algeria     Africa       48.3 11000948     2551.
>  4 Angola      Africa       34    4826015     4269.
>  5 Argentina   Americas     65.1 21283783     7133.
>  6 Australia   Oceania      70.9 10794968    12217.
>  7 Austria     Europe       69.5  7129864    10751.
>  8 Bahrain     Asia         56.9   171863    12753.
>  9 Bangladesh  Asia         41.2 56839289      686.
> 10 Belgium     Europe       70.2  9218400    10991.
> # ℹ 132 more rows
> 
> $`1967.xlsx`
> # A tibble: 142 × 5
>    country     continent lifeExp      pop gdpPercap
>    <chr>       <chr>       <dbl>    <dbl>     <dbl>
>  1 Afghanistan Asia         34.0 11537966      836.
>  2 Albania     Europe       66.2  1984060     2760.
>  3 Algeria     Africa       51.4 12760499     3247.
>  4 Angola      Africa       36.0  5247469     5523.
>  5 Argentina   Americas     65.6 22934225     8053.
>  6 Australia   Oceania      71.1 11872264    14526.
>  7 Austria     Europe       70.1  7376998    12835.
>  8 Bahrain     Asia         59.9   202182    14805.
>  9 Bangladesh  Asia         43.5 62821884      721.
> 10 Belgium     Europe       70.9  9556500    13149.
> # ℹ 132 more rows
> 
> $`1972.xlsx`
> # A tibble: 142 × 5
>    country     continent lifeExp      pop gdpPercap
>    <chr>       <chr>       <dbl>    <dbl>     <dbl>
>  1 Afghanistan Asia         36.1 13079460      740.
>  2 Albania     Europe       67.7  2263554     3313.
>  3 Algeria     Africa       54.5 14760787     4183.
>  4 Angola      Africa       37.9  5894858     5473.
>  5 Argentina   Americas     67.1 24779799     9443.
>  6 Australia   Oceania      71.9 13177000    16789.
>  7 Austria     Europe       70.6  7544201    16662.
>  8 Bahrain     Asia         63.3   230800    18269.
>  9 Bangladesh  Asia         45.3 70759295      630.
> 10 Belgium     Europe       71.4  9709100    16672.
> # ℹ 132 more rows
> 
> $`1977.xlsx`
> # A tibble: 142 × 5
>    country     continent lifeExp      pop gdpPercap
>    <chr>       <chr>       <dbl>    <dbl>     <dbl>
>  1 Afghanistan Asia         38.4 14880372      786.
>  2 Albania     Europe       68.9  2509048     3533.
>  3 Algeria     Africa       58.0 17152804     4910.
>  4 Angola      Africa       39.5  6162675     3009.
>  5 Argentina   Americas     68.5 26983828    10079.
>  6 Australia   Oceania      73.5 14074100    18334.
>  7 Austria     Europe       72.2  7568430    19749.
>  8 Bahrain     Asia         65.6   297410    19340.
>  9 Bangladesh  Asia         46.9 80428306      660.
> 10 Belgium     Europe       72.8  9821800    19118.
> # ℹ 132 more rows
> 
> $`1982.xlsx`
> # A tibble: 142 × 5
>    country     continent lifeExp      pop gdpPercap
>    <chr>       <chr>       <dbl>    <dbl>     <dbl>
>  1 Afghanistan Asia         39.9 12881816      978.
>  2 Albania     Europe       70.4  2780097     3631.
>  3 Algeria     Africa       61.4 20033753     5745.
>  4 Angola      Africa       39.9  7016384     2757.
>  5 Argentina   Americas     69.9 29341374     8998.
>  6 Australia   Oceania      74.7 15184200    19477.
>  7 Austria     Europe       73.2  7574613    21597.
>  8 Bahrain     Asia         69.1   377967    19211.
>  9 Bangladesh  Asia         50.0 93074406      677.
> 10 Belgium     Europe       73.9  9856303    20980.
> # ℹ 132 more rows
> 
> $`1987.xlsx`
> # A tibble: 142 × 5
>    country     continent lifeExp       pop gdpPercap
>    <chr>       <chr>       <dbl>     <dbl>     <dbl>
>  1 Afghanistan Asia         40.8  13867957      852.
>  2 Albania     Europe       72     3075321     3739.
>  3 Algeria     Africa       65.8  23254956     5681.
>  4 Angola      Africa       39.9   7874230     2430.
>  5 Argentina   Americas     70.8  31620918     9140.
>  6 Australia   Oceania      76.3  16257249    21889.
>  7 Austria     Europe       74.9   7578903    23688.
>  8 Bahrain     Asia         70.8    454612    18524.
>  9 Bangladesh  Asia         52.8 103764241      752.
> 10 Belgium     Europe       75.4   9870200    22526.
> # ℹ 132 more rows
> 
> $`1992.xlsx`
> # A tibble: 142 × 5
>    country     continent lifeExp       pop gdpPercap
>    <chr>       <chr>       <dbl>     <dbl>     <dbl>
>  1 Afghanistan Asia         41.7  16317921      649.
>  2 Albania     Europe       71.6   3326498     2497.
>  3 Algeria     Africa       67.7  26298373     5023.
>  4 Angola      Africa       40.6   8735988     2628.
>  5 Argentina   Americas     71.9  33958947     9308.
>  6 Australia   Oceania      77.6  17481977    23425.
>  7 Austria     Europe       76.0   7914969    27042.
>  8 Bahrain     Asia         72.6    529491    19036.
>  9 Bangladesh  Asia         56.0 113704579      838.
> 10 Belgium     Europe       76.5  10045622    25576.
> # ℹ 132 more rows
> 
> $`1997.xlsx`
> # A tibble: 142 × 5
>    country     continent lifeExp       pop gdpPercap
>    <chr>       <chr>       <dbl>     <dbl>     <dbl>
>  1 Afghanistan Asia         41.8  22227415      635.
>  2 Albania     Europe       73.0   3428038     3193.
>  3 Algeria     Africa       69.2  29072015     4797.
>  4 Angola      Africa       41.0   9875024     2277.
>  5 Argentina   Americas     73.3  36203463    10967.
>  6 Australia   Oceania      78.8  18565243    26998.
>  7 Austria     Europe       77.5   8069876    29096.
>  8 Bahrain     Asia         73.9    598561    20292.
>  9 Bangladesh  Asia         59.4 123315288      973.
> 10 Belgium     Europe       77.5  10199787    27561.
> # ℹ 132 more rows
> 
> $`2002.xlsx`
> # A tibble: 142 × 5
>    country     continent lifeExp       pop gdpPercap
>    <chr>       <chr>       <dbl>     <dbl>     <dbl>
>  1 Afghanistan Asia         42.1  25268405      727.
>  2 Albania     Europe       75.7   3508512     4604.
>  3 Algeria     Africa       71.0  31287142     5288.
>  4 Angola      Africa       41.0  10866106     2773.
>  5 Argentina   Americas     74.3  38331121     8798.
>  6 Australia   Oceania      80.4  19546792    30688.
>  7 Austria     Europe       79.0   8148312    32418.
>  8 Bahrain     Asia         74.8    656397    23404.
>  9 Bangladesh  Asia         62.0 135656790     1136.
> 10 Belgium     Europe       78.3  10311970    30486.
> # ℹ 132 more rows
> 
> $`2007.xlsx`
> # A tibble: 142 × 5
>    country     continent lifeExp       pop gdpPercap
>    <chr>       <chr>       <dbl>     <dbl>     <dbl>
>  1 Afghanistan Asia         43.8  31889923      975.
>  2 Albania     Europe       76.4   3600523     5937.
>  3 Algeria     Africa       72.3  33333216     6223.
>  4 Angola      Africa       42.7  12420476     4797.
>  5 Argentina   Americas     75.3  40301927    12779.
>  6 Australia   Oceania      81.2  20434176    34435.
>  7 Austria     Europe       79.8   8199783    36126.
>  8 Bahrain     Asia         75.6    708573    29796.
>  9 Bangladesh  Asia         64.1 150448339     1391.
> 10 Belgium     Europe       79.4  10392226    33693.
> # ℹ 132 more rows
…
5

The name of each list element (the filename) will be saved as the variable year.

6

Extracting just the numeric part of the filename which is the actual year.

> # A tibble: 1,704 × 6
>     year country     continent lifeExp      pop gdpPercap
>    <dbl> <chr>       <chr>       <dbl>    <dbl>     <dbl>
>  1  1952 Afghanistan Asia         28.8  8425333      779.
>  2  1952 Albania     Europe       55.2  1282697     1601.
>  3  1952 Algeria     Africa       43.1  9279525     2449.
>  4  1952 Angola      Africa       30.0  4232095     3521.
>  5  1952 Argentina   Americas     62.5 17876956     5911.
>  6  1952 Australia   Oceania      69.1  8691212    10040.
>  7  1952 Austria     Europe       66.8  6927772     6137.
>  8  1952 Bahrain     Asia         50.9   120447     9867.
>  9  1952 Bangladesh  Asia         37.5 46886859      684.
> 10  1952 Belgium     Europe       68    8730405     8343.
> # ℹ 1,694 more rows
…
Writing multiple csv files

Let’s imagine we want to save multiple datasets based on a feature of the data.

For example, what if we want a different csv for each clarity type in the diamonds dataset?

The easiest way to make these individual datasets is using group_nest():

by_clarity$data[[1]]

> # A tibble: 741 × 9
>    carat cut       color depth table price     x     y     z
>    <dbl> <ord>     <ord> <dbl> <dbl> <int> <dbl> <dbl> <dbl>
>  1  0.32 Premium   E      60.9    58   345  4.38  4.42  2.68
>  2  1.17 Very Good J      60.2    61  2774  6.83  6.9   4.13
>  3  1.01 Premium   F      61.8    60  2781  6.39  6.36  3.94
>  4  1.01 Fair      E      64.5    58  2788  6.29  6.21  4.03
>  5  0.96 Ideal     F      60.7    55  2801  6.37  6.41  3.88
>  6  1.04 Premium   G      62.2    58  2801  6.46  6.41  4   
>  7  1    Fair      G      66.4    59  2808  6.16  6.09  4.07
>  8  1.2  Fair      F      64.6    56  2809  6.73  6.66  4.33
>  9  0.43 Very Good E      58.4    62   555  4.94  5     2.9 
> 10  1.02 Premium   G      60.3    58  2815  6.55  6.5   3.94
> # ℹ 731 more rows
…
>     mpg   cyl  disp    hp  drat    wt  qsec     vs     am  gear  carb
> 1 20.09 6.188 230.7 146.7 3.597 3.217 17.85 0.4375 0.4062 3.688 2.812

Answers

Group diamonds by cut, clarity, and color then count the number of observations and compute the mean of each numeric column.

. . .

diamonds |> summarise(n = n(),
                      across(where(is.numeric), mean),
                      .by = c(cut, clarity, color))

> # A tibble: 276 × 11
>    cut       clarity color     n carat depth table price     x     y     z
>    <ord>     <ord>   <ord> <dbl> <dbl> <dbl> <dbl> <dbl> <dbl> <dbl> <dbl>
>  1 Ideal     SI2     E       469 0.874  61.7  56.1 3891.  6.02  6.02  3.71
>  2 Premium   SI1     E       614 0.726  61.2  58.8 3363.  5.64  5.61  3.44
>  3 Good      VS1     E        89 0.681  61.6  59.2 3713.  5.49  5.52  3.39
>  4 Premium   VS2     I       315 1.24   61.3  58.9 7156.  6.70  6.67  4.09
>  5 Good      SI2     J        53 1.32   62.4  59.1 5306.  6.85  6.86  4.27
>  6 Very Good VVS2    J        29 1.10   62.4  58.3 5960.  6.34  6.37  3.96
>  7 Very Good VVS1    I        69 0.571  62.2  58.0 2056.  5.17  5.20  3.22
>  8 Very Good SI1     H       547 0.974  62.0  58.0 4934.  6.15  6.17  3.82
>  9 Fair      VS2     E        42 0.690  64.5  59.4 3042.  5.50  5.45  3.53
> 10 Very Good VS1     H       257 0.772  62.0  57.7 3750.  5.68  5.70  3.53
> # ℹ 266 more rows
…
